{
  "request": {
    "method": "DELETE",
    "url": "/people/1",
    "headers": {
      "Authorization": {
        "contains": "i am a seon token"
      }
    }
  },
  "response": {
    "status": 401
  }
}
